{
  "FCFF": {
    "status": "success",
    "message": "Future cash flow to firm successfully pulled",
    "data": {
      "startYear": 2020,
      "uid": "0xcd40",
      "dcfItems": [
        {
          "uid": "0xc9e3",
          "name": "Total revenue",
          "fact": [
            { "year": 2021, "value": 29614.6 },
            { "year": 2020, "value": 27912.8 },
            { "year": 2017, "value": 22386.8 },
            { "year": 2022, "value": 31316.4 },
            { "year": 2018, "value": 24719.5 },
            { "year": 2019, "value": 26211 },
            { "year": 2016, "value": 21315.9 },
            { "year": 2023, "value": 33018.2 }
          ],
          "order": 1,
          "bold": true
        },
        {
          "uid": "0xcaf7",
          "name": "- Capital expenditure",
          "fact": [
            { "year": 2020, "value": -2449.517 },
            { "year": 2023, "value": -3253.667 },
            { "year": 2021, "value": -2717.567 },
            { "year": 2018, "value": -1976.4 },
            { "year": 2017, "value": -1519.4 },
            { "year": 2016, "value": -1440.3 },
            { "year": 2019, "value": -2181.467 },
            { "year": 2022, "value": -2985.617 }
          ],
          "order": 7
        },
        {
          "uid": "0xcb33",
          "name": "+ Change in working capital",
          "fact": [
            { "year": 2017, "value": 89.7 },
            { "year": 2020, "value": 12293.183 },
            { "year": 2022, "value": 18853.883 },
            { "year": 2021, "value": 15573.533 },
            { "year": 2019, "value": 9012.833 },
            { "year": 2018, "value": 6913.7 },
            { "year": 2016, "value": 353 },
            { "year": 2023, "value": 22134.233 }
          ],
          "order": 11
        },
        {
          "uid": "0xcd07",
          "name": "Total operating income",
          "fact": [
            { "year": 2019, "value": 4102.533 },
            { "year": 2018, "value": 4107.7 },
            { "year": 2017, "value": 4288.2 },
            { "year": 2016, "value": 4171.9 },
            { "year": 2021, "value": 4021.433 },
            { "year": 2023, "value": 3940.333 },
            { "year": 2022, "value": 3980.883 },
            { "year": 2020, "value": 4061.983 }
          ],
          "order": 3
        },
        {
          "uid": "0xda81",
          "name": "Change in working capital as % of Revenue",
          "fact": [
            { "year": 2019, "value": 0.343857 },
            { "year": 2021, "value": 0.525873 },
            { "year": 2022, "value": 0.602045 },
            { "year": 2023, "value": 0.670365 },
            { "year": 2018, "value": 0.279686 },
            { "year": 2017, "value": 0.004007 },
            { "year": 2016, "value": 0.01656 },
            { "year": 2020, "value": 0.440414 }
          ],
          "order": 12
        },
        {
          "uid": "0xda83",
          "name": "Discount rate",
          "fact": [
            { "year": 2020, "value": 0.062 },
            { "year": 2022, "value": 0.062 },
            { "year": 2021, "value": 0.062 },
            { "year": 2023, "value": 0.062 },
            { "year": 2019, "value": 0.062 }
          ],
          "order": 15
        },
        {
          "uid": "0xda88",
          "name": "Present value of FCFF",
          "fact": [
            { "year": 2022, "value": 16527.883814 },
            { "year": 2024, "value": 18164.350382 },
            { "year": 2020, "value": 12713.344306 },
            { "year": 2019, "value": 10472.032957 },
            { "year": 2021, "value": 14720.319562 }
          ],
          "order": 17,
          "bold": true
        },
        {
          "uid": "0xda8f",
          "name": "Cumulative discount",
          "fact": [
            { "year": 2020, "value": 1.124 },
            { "year": 2019, "value": 1.062 },
            { "year": 2022, "value": 1.248 },
            { "year": 2021, "value": 1.186 },
            { "year": 2023, "value": 1.31 }
          ],
          "order": 16
        },
        {
          "uid": "0xda97",
          "name": "D\u0026A as % of Revenue",
          "fact": [
            { "year": 2016, "value": 0.048325 },
            { "year": 2023, "value": 0.059415 },
            { "year": 2019, "value": 0.053801 },
            { "year": 2018, "value": 0.052829 },
            { "year": 2021, "value": 0.05693 },
            { "year": 2017, "value": 0.047666 },
            { "year": 2022, "value": 0.05824 },
            { "year": 2020, "value": 0.055461 }
          ],
          "order": 10
        },
        {
          "uid": "0xdaa6",
          "name": "NOPAT",
          "fact": [
            { "year": 2020, "value": 2898.066 },
            { "year": 2017, "value": 2908.5 },
            { "year": 2016, "value": 2792.2 },
            { "year": 2023, "value": 2952.966 },
            { "year": 2018, "value": 2845.7 },
            { "year": 2022, "value": 2934.666 },
            { "year": 2021, "value": 2916.366 },
            { "year": 2019, "value": 2879.766 }
          ],
          "order": 5
        },
        {
          "uid": "0xdac2",
          "name": "CapEx as % of Revenue",
          "fact": [
            { "year": 2016, "value": -0.067569 },
            { "year": 2022, "value": -0.095337 },
            { "year": 2017, "value": -0.06787 },
            { "year": 2020, "value": -0.087756 },
            { "year": 2023, "value": -0.098542 },
            { "year": 2021, "value": -0.091764 },
            { "year": 2018, "value": -0.079953 },
            { "year": 2019, "value": -0.083227 }
          ],
          "order": 8
        },
        {
          "uid": "0xdace",
          "name": "FCFF",
          "fact": [
            { "year": 2017, "value": 2545.9 },
            { "year": 2021, "value": 17458.299 },
            { "year": 2020, "value": 14289.799 },
            { "year": 2023, "value": 23795.299 },
            { "year": 2022, "value": 20626.799 },
            { "year": 2016, "value": 2735 },
            { "year": 2018, "value": 9088.9 },
            { "year": 2019, "value": 11121.299 }
          ],
          "order": 13,
          "bold": true
        },
        {
          "uid": "0xdad7",
          "name": "YoY FCFF growth",
          "fact": [
            { "year": 2022, "value": 0.18149 },
            { "year": 2016 },
            { "year": 2018, "value": 2.570015 },
            { "year": 2023, "value": 0.153611 },
            { "year": 2019, "value": 0.223613 },
            { "year": 2020, "value": 0.284904 },
            { "year": 2021, "value": 0.221732 },
            { "year": 2017, "value": -0.069141 }
          ],
          "order": 14
        },
        {
          "uid": "0xdadc",
          "name": "EBIT margin",
          "fact": [
            { "year": 2019, "value": 0.15652 },
            { "year": 2018, "value": 0.166172 },
            { "year": 2021, "value": 0.135792 },
            { "year": 2023, "value": 0.119338 },
            { "year": 2017, "value": 0.19155 },
            { "year": 2020, "value": 0.145524 },
            { "year": 2022, "value": 0.127118 },
            { "year": 2016, "value": 0.195718 }
          ],
          "order": 4
        },
        {
          "uid": "0xdaf8",
          "name": "YoY revenue growth",
          "fact": [
            { "year": 2019, "value": 0.060337 },
            { "year": 2017, "value": 0.050239 },
            { "year": 2022, "value": 0.057465 },
            { "year": 2020, "value": 0.064927 },
            { "year": 2021, "value": 0.060968 },
            { "year": 2016 },
            { "year": 2018, "value": 0.1042 },
            { "year": 2023, "value": 0.054342 }
          ],
          "order": 2
        },
        {
          "uid": "0xdb12",
          "name": "YoY NOPAT growth",
          "fact": [
            { "year": 2019, "value": 0.011971 },
            { "year": 2017, "value": 0.041652 },
            { "year": 2021, "value": 0.006315 },
            { "year": 2022, "value": 0.006275 },
            { "year": 2016 },
            { "year": 2020, "value": 0.006355 },
            { "year": 2023, "value": 0.006236 },
            { "year": 2018, "value": -0.021592 }
          ],
          "order": 7
        }
      ]
    }
  },
  "summary": {
    "status": "success",
    "message": "Valuation summary",
    "data": {
      "startYear": 2018,
      "uid": "0x3875",
      "dcfItems": [
        {
          "uid": "0x3799",
          "name": "Cash and cash equivalents",
          "fact": [
            { "year": 2018, "value": 8756.3 },
            { "year": 2016, "value": 2128.8 },
            { "year": 2021, "value": 17704.133 },
            { "year": 2022, "value": 21017.883 },
            { "year": 2017, "value": 2462.3 },
            { "year": 2023, "value": 24331.633 },
            { "year": 2020, "value": 14390.383 },
            { "year": 2019, "value": 11076.633 }
          ],
          "order": 5
        },
        {
          "uid": "0x3821",
          "name": "Shares outstanding",
          "fact": [
            { "year": 2016, "value": 1486.7 },
            { "year": 2022, "value": 1217.35 },
            { "year": 2018, "value": 1394.6 },
            { "year": 2017, "value": 1461.5 },
            { "year": 2020, "value": 1309.45 },
            { "year": 2019, "value": 1355.5 },
            { "year": 2023, "value": 1171.3 },
            { "year": 2021, "value": 1263.4 }
          ],
          "order": 7
        },
        {
          "uid": "0x46c8",
          "name": "Enterprise value",
          "fact": [
            { "year": 2019, "value": 286778.971128 },
            { "year": 2020, "value": 348157.785099 },
            { "year": 2021, "value": 403119.252584 },
            { "year": 2023, "value": 497434.809001 },
            { "year": 2022, "value": 452619.805031 }
          ],
          "order": 3,
          "bold": true
        },
        {
          "uid": "0x46df",
          "name": "Implied share price",
          "fact": [
            { "year": 2021, "value": 288.566939 },
            { "year": 2023, "value": 356.196048 },
            { "year": 2020, "value": 249.156737 },
            { "year": 2019, "value": 205.144967 },
            { "year": 2022, "value": 324.061383 }
          ],
          "order": 8,
          "bold": true
        },
        {
          "uid": "0x46fd",
          "name": "Equity value",
          "fact": [
            { "year": 2021, "value": 402435.452584 },
            { "year": 2022, "value": 451936.005031 },
            { "year": 2020, "value": 347473.985099 },
            { "year": 2023, "value": 496751.009001 },
            { "year": 2019, "value": 286095.171128 }
          ],
          "order": 6,
          "bold": true
        },
        {
          "uid": "0x472a",
          "name": "Present value of terminal value",
          "fact": [
            { "year": 2021, "value": 388398.933022 },
            { "year": 2019, "value": 276306.938171 },
            { "year": 2020, "value": 335444.440793 },
            { "year": 2022, "value": 436091.921216 },
            { "year": 2023, "value": 479270.45862 }
          ],
          "order": 2
        },
        {
          "uid": "0x472e",
          "name": "Current share price",
          "fact": [
            { "year": 2023, "value": 90.3 },
            { "year": 2022, "value": 90.3 },
            { "year": 2020, "value": 90.3 },
            { "year": 2021, "value": 90.3 },
            { "year": 2019, "value": 90.3 }
          ],
          "order": 9
        },
        {
          "uid": "0x473a",
          "name": "Implied premium",
          "fact": [
            { "year": 2022, "value": 2.58872 },
            { "year": 2020, "value": 1.759211 },
            { "year": 2019, "value": 1.271816 },
            { "year": 2021, "value": 2.195647 },
            { "year": 2023, "value": 2.944585 }
          ],
          "order": 10
        },
        {
          "uid": "0x473e",
          "name": "Total debt",
          "fact": [
            { "year": 2016, "value": 3602.2 },
            { "year": 2018, "value": 9440.1 },
            { "year": 2020, "value": 14415.15 },
            { "year": 2017, "value": 3932.6 },
            { "year": 2023, "value": 23172 },
            { "year": 2021, "value": 17334.1 },
            { "year": 2019, "value": 11496.2 },
            { "year": 2022, "value": 20253.05 }
          ],
          "order": 4
        },
        {
          "uid": "0x473f",
          "name": "Present value of FCFF",
          "fact": [
            { "year": 2021, "value": 14720.319562 },
            { "year": 2019, "value": 10472.032957 },
            { "year": 2020, "value": 12713.344306 },
            { "year": 2022, "value": 16527.883814 },
            { "year": 2023, "value": 18164.350382 }
          ],
          "order": 1
        }
      ]
    }
  }
}
